{
    "mainApplication":{
        "PronghonJSONPath": "misc/pronghorn.json",
        "PronghornURL": "http://localhost:3000",
        "PronghornUsername": "admin@pronghorn",
        "PronghornPassword": "admin",
        "ExportReportFileName": "index",
        "Environment": "mac",
        "pronghornLogsPath": "/Users/aalzubidy/pioneer/server/logs/pronghorn.log"
    },
    "prepClass":{
        "inputsForStringVariables": ["a","aa","null","undefined"," ", "!","@","$","%","^","&","(",")","위대문","위","a-a","a,a","%3F","?","|","%7C","-","+","1+1","-1", "0", "90071992547409923433333", "-90071992547409928888"],
        "inputsForArrayVariables": [["a"],["null"],["undefined"],[], ["!"],["@"],["$"],["%"],["^"],["&"],["(",")"],["위","대문"],["위"],[["a"],["a"]],[{}],[{"%3F":"?"}], [90071992547409923433333, -90071992547409928888]],
        "inputsForObjectVariables": [{},{"null":""},{"e":"undefined"},{"a":[1,2,3]}, {"a":"!"}, {"위":"대문"},{"a":"위"},{"a":{"a":["a"]}},{"%3F":"?"}, {"a":90071992547409923433333, "b":-90071992547409928888}]
    },
    "reqClass":{
        "pronghornMongoURL": "mongodb://localhost:27017/",
        "mongoUsername":"admin",
        "mongoPassword": "admin"
    }
}